sample.csv

#Digilent WaveForms Oscilloscope Acquisition
#Device Name: EExplorer
#Serial Number: SN:210151AA5CFE
#Date Time: 2020-08-23 20:12:02.121
#Sample rate: 1.33333e+07Hz
#Samples: 8192
#Trigger: Source: Channel 1 Type: Edge Condition: Rising Level: 0 V Hyst.: Auto HoldOff: 0 s
#Channel 1: Range: 1 V/div Offset: 0 V Attenuation: 1 X
#Channel 2: Range: 1 V/div Offset: 0 V Attenuation: 1 X
#Wavegen Channel 1: Running
#Mode: Simple
#Type: Square
#Frequency: 8 kHz
#Period: 125 us
#Amplitude: 3 V
#Offset: 0 V
#Symmetry: 50 %
#Phase: 0 °

Time (s),Channel 1 (V),Channel 2 (V)
-0.0003409898250747012,2.993661057312209,2.680334533599699
-0.0003409148250747012,3.00352675647422,2.680334533599699
-0.0003408398250747012,3.00352675647422,2.691006607402721
-0.0003407648250747012,2.993661057312213,2.680334533599704
-0.0003406898250747012,3.00352675647422,2.691006607402726
-0.0003406148250747012,3.00352675647422,2.691006607402726
-0.0003405398250747012,2.993661057312209,2.691006607402726
-0.0003404648250747012,3.00352675647422,2.691006607402726
-0.0003403898250747012,3.00352675647422,2.691006607402726
-0.0003403148250747012,2.983795358150197,2.701678681205753
-0.0003402398250747012,2.993661057312209,2.701678681205753
-0.0003401648250747012,2.993661057312209,2.701678681205753
-0.0003400898250747012,2.993661057312213,2.701678681205753
-0.0003400148250747012,3.00352675647422,2.701678681205753
-0.0003399398250747012,2.993661057312209,2.701678681205753
-0.0003398648250747012,3.00352675647422,2.701678681205753
-0.0003397898250747012,3.00352675647422,2.701678681205753
-0.0003397148250747012,3.013392455636227,2.71235075500878
-0.0003396398250747012,3.00352675647422,2.71235075500878
-0.0003395648250747012,2.993661057312209,2.71235075500878
-0.0003394898250747012,2.993661057312209,2.71235075500878
-0.0003394148250747012,2.993661057312209,2.723022828811807
-0.0003393398250747012,2.993661057312209,2.723022828811807
-0.0003392648250747012,2.993661057312209,2.71235075500878
-0.0003391898250747012,2.993661057312209,2.723022828811807
-0.0003391148250747012,3.003526756474216,2.723022828811807
-0.0003390398250747012,2.993661057312213,2.723022828811807
-0.0003389648250747012,3.00352675647422,2.723022828811807
-0.0003388898250747012,3.00352675647422,2.723022828811807
-0.0003388148250747012,3.00352675647422,2.733694902614834
-0.0003387398250747012,3.00352675647422,2.723022828811812
-0.0003386648250747012,3.00352675647422,2.733694902614834
-0.0003385898250747012,3.00352675647422,2.744366976417861
-0.0003385148250747012,2.993661057312209,2.733694902614834
-0.0003384398250747012,2.993661057312209,2.744366976417856
-0.0003383648250747012,3.003526756474216,2.733694902614839
-0.0003382898250747012,2.993661057312209,2.744366976417861
-0.0003382148250747012,3.00352675647422,2.744366976417861
-0.0003381398250747012,2.993661057312209,2.733694902614834
-0.0003380648250747012,2.993661057312209,2.755039050220878
-0.0003379898250747012,2.993661057312213,2.744366976417856
-0.0003379148250747012,3.00352675647422,2.733694902614834
-0.0003378398250747012,3.00352675647422,2.744366976417861
-0.0003377648250747012,3.013392455636231,2.755039050220888
-0.0003376898250747012,3.023258154798238,2.755039050220883
-0.0003376148250747012,3.013392455636231,2.744366976417861
-0.0003375398250747012,3.013392455636231,2.755039050220888
-0.0003374648250747012,3.00352675647422,2.755039050220888
-0.0003373898250747012,2.993661057312213,2.755039050220888
-0.0003373148250747012,3.003526756474216,2.76571112402391
-0.0003372398250747012,2.993661057312209,2.755039050220888
-0.0003371648250747012,2.993661057312209,2.765711124023915
-0.0003370898250747012,2.993661057312209,2.765711124023915
-0.0003370148250747012,3.003526756474216,2.755039050220893
-0.0003369398250747012,3.00352675647422,2.765711124023915
-0.0003368648250747012,3.00352675647422,2.765711124023915
-0.0003367898250747012,3.013392455636231,2.776383197826942
-0.0003367148250747012,3.023258154798238,2.76571112402392
-0.0003366398250747012,3.013392455636231,2.776383197826942
-0.0003365648250747012,3.013392455636231,2.776383197826942
-0.0003364898250747012,3.023258154798243,2.776383197826942
-0.0003364148250747012,3.013392455636231,2.776383197826942
-0.0003363398250747012,3.003526756474225,2.776383197826942
-0.0003362648250747012,3.00352675647422,2.776383197826946
-0.0003361898250747012,3.00352675647422,2.787055271629969
-0.0003361148250747012,3.00352675647422,2.787055271629969
-0.0003360398250747012,3.00352675647422,2.776383197826942
-0.0003359648250747012,3.00352675647422,2.776383197826946
-0.0003358898250747012,3.00352675647422,2.787055271629969
-0.0003358148250747012,3.013392455636231,2.787055271629969
-0.0003357398250747012,3.013392455636231,2.787055271629969
-0.0003356648250747012,3.013392455636231,2.797727345432991
-0.0003355898250747012,3.013392455636231,2.787055271629969
-0.0003355148250747012,3.013392455636231,2.787055271629969
-0.0003354398250747012,3.013392455636231,2.787055271629969
-0.0003353648250747012,3.00352675647422,2.787055271629969
-0.0003352898250747012,2.993661057312213,2.797727345432991
-0.0003352148250747012,2.993661057312213,2.797727345432996
-0.0003351398250747012,3.00352675647422,2.797727345432996
-0.0003350648250747012,3.00352675647422,2.797727345432996
-0.0003349898250747012,3.00352675647422,2.808399419236022
-0.0003349148250747012,3.00352675647422,2.808399419236018
-0.0003348398250747012,3.00352675647422,2.797727345432996
-0.0003347648250747012,3.00352675647422,2.797727345432996
-0.0003346898250747012,3.013392455636231,2.808399419236022
-0.0003346148250747012,3.023258154798238,2.819071493039045
-0.0003345398250747012,3.023258154798238,2.808399419236018
-0.0003344648250747012,3.013392455636231,2.797727345432996
-0.0003343898250747012,3.013392455636231,2.808399419236022
-0.0003343148250747012,3.013392455636231,2.808399419236022
-0.0003342398250747012,3.003526756474225,2.819071493039045
-0.0003341648250747012,3.013392455636231,2.81907149303905
-0.0003340898250747012,3.00352675647422,2.81907149303905
-0.0003340148250747012,3.00352675647422,2.808399419236022
-0.0003339398250747012,2.993661057312213,2.808399419236022
-0.0003338648250747012,3.013392455636227,2.808399419236027
-0.0003337898250747012,3.00352675647422,2.81907149303905
-0.0003337148250747012,3.013392455636231,2.81907149303905
-0.0003336398250747012,3.00352675647422,2.81907149303905
-0.0003335648250747012,3.013392455636227,2.81907149303905
-0.0003334898250747012,3.023258154798243,2.829743566842077
-0.0003334148250747012,3.023258154798243,2.829743566842077
-0.0003333398250747012,3.013392455636231,2.829743566842077
-0.0003332648250747012,3.013392455636231,2.829743566842077
-0.0003331898250747012,3.00352675647422,2.829743566842072
-0.0003331148250747012,3.00352675647422,2.81907149303905
-0.0003330398250747012,3.00352675647422,2.81907149303905
-0.0003329648250747012,3.00352675647422,2.829743566842077
-0.0003328898250747012,3.00352675647422,2.819071493039055
-0.0003328148250747012,3.003526756474225,2.829743566842077
-0.0003327398250747012,3.013392455636231,2.829743566842077
-0.0003326648250747012,3.00352675647422,2.829743566842077
-0.0003325898250747012,3.013392455636231,2.829743566842077
-0.0003325148250747012,3.013392455636231,2.829743566842077
-0.0003324398250747012,3.023258154798243,2.840415640645098
-0.0003323648250747012,3.023258154798243,2.829743566842077
-0.0003322898250747012,3.013392455636231,2.81907149303905
-0.0003322148250747012,3.013392455636231,2.829743566842072
-0.0003321398250747012,3.013392455636227,2.829743566842081
-0.0003320648250747012,3.00352675647422,2.840415640645103
-0.0003319898250747012,3.00352675647422,2.840415640645103
-0.0003319148250747012,3.00352675647422,2.840415640645103
-0.0003318398250747012,2.993661057312213,2.840415640645103
-0.0003317648250747012,3.00352675647422,2.840415640645103
-0.0003316898250747012,3.00352675647422,2.840415640645103
-0.0003316148250747012,3.00352675647422,2.840415640645103
-0.0003315398250747012,3.00352675647422,2.829743566842077
-0.0003314648250747012,3.023258154798234,2.840415640645098
-0.0003313898250747012,3.013392455636231,2.840415640645103
-0.0003313148250747012,3.013392455636231,2.851087714448131
-0.0003312398250747012,3.023258154798243,2.840415640645103
-0.0003311648250747012,2.993661057312222,2.840415640645103
-0.0003310898250747012,3.00352675647422,2.840415640645103
-0.0003310148250747012,3.00352675647422,2.840415640645103
-0.0003309398250747012,3.00352675647422,2.840415640645103
-0.0003308648250747012,3.00352675647422,2.840415640645103
-0.0003307898250747012,3.00352675647422,2.840415640645103
-0.0003307148250747012,2.993661057312209,2.840415640645103
-0.0003306398250747012,2.993661057312209,2.840415640645103
-0.0003305648250747012,3.00352675647422,2.840415640645103
-0.0003304898250747012,3.00352675647422,2.851087714448131
-0.0003304148250747012,3.013392455636236,2.840415640645108
-0.0003303398250747012,3.023258154798243,2.851087714448131
-0.0003302648250747012,3.00352675647422,2.840415640645103
-0.0003301898250747012,3.00352675647422,2.851087714448131
-0.0003301148250747012,3.00352675647422,2.840415640645108
-0.0003300398250747012,2.993661057312209,2.851087714448131
-0.0003299648250747012,2.993661057312209,2.851087714448131
-0.0003298898250747012,3.00352675647422,2.851087714448131
-0.0003298148250747012,2.993661057312209,2.851087714448131
-0.0003297398250747012,2.993661057312209,2.840415640645108
-0.0003296648250747012,3.003526756474216,2.851087714448131
-0.0003295898250747012,2.993661057312209,2.851087714448131
-0.0003295148250747012,3.00352675647422,2.851087714448131
-0.0003294398250747012,3.00352675647422,2.840415640645108
-0.0003293648250747012,3.013392455636231,2.851087714448131
-0.0003292898250747012,3.013392455636231,2.851087714448131
-0.0003292148250747012,3.013392455636231,2.861759788251157
-0.0003291398250747012,3.013392455636231,2.851087714448131
-0.0003290648250747012,3.003526756474225,2.851087714448131
-0.0003289898250747012,3.00352675647422,2.861759788251153
-0.0003289148250747012,3.00352675647422,2.851087714448131
-0.0003288398250747012,2.993661057312209,2.861759788251157
-0.0003287648250747012,3.00352675647422,2.861759788251157
-0.0003286898250747012,2.993661057312213,2.861759788251157
-0.0003286148250747012,2.993661057312209,2.861759788251157
-0.0003285398250747012,3.00352675647422,2.861759788251157
-0.0003284648250747012,3.013392455636231,2.861759788251157
-0.0003283898250747012,3.003526756474225,2.861759788251157
-0.0003283148250747012,3.003526756474225,2.851087714448135
-0.0003282398250747012,3.013392455636231,2.861759788251157
-0.0003281648250747012,3.00352675647422,2.861759788251157
-0.0003280898250747012,3.013392455636231,2.872431862054184
-0.0003280148250747012,3.003526756474225,2.872431862054184
-0.0003279398250747012,3.00352675647422,2.872431862054184
-0.0003278648250747012,3.00352675647422,2.872431862054184
-0.0003277898250747012,3.00352675647422,2.861759788251157
-0.0003277148250747012,2.993661057312209,2.872431862054184
-0.0003276398250747012,3.003526756474216,2.872431862054179
-0.0003275648250747012,2.993661057312209,2.861759788251157
-0.0003274898250747012,3.00352675647422,2.872431862054184
-0.0003274148250747012,3.00352675647422,2.872431862054184
-0.0003273398250747012,3.013392455636227,2.872431862054184
-0.0003272648250747012,3.003526756474225,2.861759788251157
-0.0003271898250747012,3.013392455636231,2.861759788251157
-0.0003271148250747012,2.993661057312209,2.872431862054184
-0.0003270398250747012,3.00352675647422,2.872431862054184
-0.0003269648250747012,2.993661057312213,2.861759788251162
-0.0003268898250747012,3.00352675647422,2.872431862054184
-0.0003268148250747012,3.00352675647422,2.872431862054184
-0.0003267398250747012,2.993661057312209,2.861759788251157
-0.0003266648250747012,2.993661057312209,2.872431862054179
-0.0003265898250747012,3.00352675647422,2.872431862054184
-0.0003265148250747012,3.00352675647422,2.872431862054184
-0.0003264398250747012,2.993661057312209,2.872431862054184
-0.0003263648250747012,3.013392455636231,2.872431862054184
-0.0003262898250747012,3.013392455636231,2.861759788251162
-0.0003262148250747012,3.013392455636231,2.872431862054184
-0.0003261398250747012,3.013392455636231,2.872431862054184
-0.0003260648250747012,3.013392455636231,2.872431862054184
-0.0003259898250747012,3.013392455636231,2.861759788251157
-0.0003259148250747012,3.003526756474225,2.872431862054179
-0.0003258398250747012,3.00352675647422,2.872431862054184
-0.0003257648250747012,2.993661057312209,2.872431862054184
-0.0003256898250747012,3.00352675647422,2.883103935857211
-0.0003256148250747012,2.993661057312213,2.883103935857211
-0.0003255398250747012,2.993661057312213,2.872431862054184
-0.0003254648250747012,3.00352675647422,2.872431862054184
-0.0003253898250747012,3.00352675647422,2.883103935857211
-0.0003253148250747012,3.013392455636231,2.883103935857211
-0.0003252398250747012,3.003526756474225,2.872431862054189
-0.0003251648250747012,3.013392455636231,2.883103935857211
-0.0003250898250747012,3.013392455636231,2.883103935857211
-0.0003250148250747012,3.00352675647422,2.883103935857211
-0.0003249398250747012,3.013392455636231,2.883103935857211
-0.0003248648250747012,2.993661057312213,2.883103935857211
-0.0003247898250747012,3.00352675647422,2.883103935857211
-0.0003247148250747012,3.013392455636231,2.883103935857211
-0.0003246398250747012,3.00352675647422,2.893776009660238
-0.0003245648250747012,3.00352675647422,2.883103935857216
-0.0003244898250747012,3.00352675647422,2.883103935857211
-0.0003244148250747012,3.00352675647422,2.883103935857211
-0.0003243398250747012,2.993661057312209,2.883103935857211
-0.0003242648250747012,3.00352675647422,2.883103935857211
-0.0003241898250747012,3.00352675647422,2.883103935857211
-0.0003241148250747012,3.013392455636231,2.883103935857211
-0.0003240398250747012,3.013392455636231,2.883103935857211
-0.0003239648250747012,3.013392455636231,2.883103935857211
-0.0003238898250747012,3.013392455636231,2.883103935857211
-0.0003238148250747012,2.993661057312213,2.893776009660233
-0.0003237398250747012,3.00352675647422,2.883103935857211
-0.0003236648250747012,3.00352675647422,2.893776009660238
-0.0003235898250747012,3.00352675647422,2.893776009660238
-0.0003235148250747012,2.993661057312213,2.883103935857216
-0.0003234398250747012,3.00352675647422,2.893776009660238
-0.0003233648250747012,3.00352675647422,2.893776009660238
-0.0003232898250747012,3.00352675647422,2.893776009660238
-0.0003232148250747012,3.013392455636231,2.893776009660238
-0.0003231398250747012,3.003526756474225,2.893776009660238
-0.0003230648250747012,3.00352675647422,2.883103935857211
-0.0003229898250747012,3.013392455636231,2.893776009660238
-0.0003229148250747012,3.013392455636231,2.893776009660238
-0.0003228398250747012,3.013392455636231,2.893776009660238
-0.0003227648250747012,3.00352675647422,2.893776009660238
-0.0003226898250747012,3.00352675647422,2.893776009660238
-0.0003226148250747012,3.00352675647422,2.893776009660238
-0.0003225398250747012,3.00352675647422,2.893776009660238
-0.0003224648250747012,3.00352675647422,2.893776009660238
-0.0003223898250747012,3.00352675647422,2.893776009660238
-0.0003223148250747012,3.00352675647422,2.893776009660238
-0.0003222398250747012,3.00352675647422,2.893776009660238
-0.0003221648250747012,3.013392455636231,2.893776009660238
-0.0003220898250747012,3.003526756474225,2.904448083463265
-0.0003220148250747012,3.013392455636231,2.904448083463265
-0.0003219398250747012,3.013392455636231,2.893776009660238
-0.0003218648250747012,3.013392455636231,2.893776009660238
-0.0003217898250747012,3.013392455636231,2.893776009660238
-0.0003217148250747012,2.993661057312213,2.893776009660243
-0.0003216398250747012,3.00352675647422,2.904448083463265
-0.0003215648250747012,3.00352675647422,2.904448083463265
-0.0003214898250747012,3.00352675647422,2.904448083463265
-0.0003214148250747012,2.993661057312213,2.904448083463265
-0.0003213398250747012,3.00352675647422,2.893776009660243
-0.0003212648250747012,3.00352675647422,2.904448083463265
-0.0003211898250747012,3.00352675647422,2.904448083463265
-0.0003211148250747012,3.00352675647422,2.904448083463265
-0.0003210398250747012,3.00352675647422,2.90444808346326
-0.0003209648250747012,3.00352675647422,2.893776009660238
-0.0003208898250747012,3.013392455636231,2.904448083463265
-0.0003208148250747012,3.013392455636231,2.904448083463265
-0.0003207398250747012,3.013392455636231,2.915120157266287
-0.0003206648250747012,3.013392455636223,2.904448083463265
-0.0003205898250747012,2.993661057312209,2.904448083463265
-0.0003205148250747012,3.00352675647422,2.904448083463265
-0.0003204398250747012,2.993661057312209,2.915120157266292
-0.0003203648250747012,3.003526756474216,2.90444808346327
-0.0003202898250747012,2.993661057312209,2.904448083463265
-0.0003202148250747012,3.00352675647422,2.904448083463265
-0.0003201398250747012,3.00352675647422,2.904448083463265
-0.0003200648250747012,3.013392455636227,2.904448083463265
-0.0003199898250747012,3.013392455636231,2.915120157266292
-0.0003199148250747012,3.013392455636231,2.915120157266292
-0.0003198398250747012,3.00352675647422,2.915120157266292
-0.0003197648250747012,3.013392455636231,2.915120157266292
-0.0003196898250747012,3.003526756474225,2.90444808346327
-0.0003196148250747012,3.013392455636231,2.915120157266292
-0.0003195398250747012,3.013392455636231,2.915120157266292
-0.0003194648250747012,3.00352675647422,2.915120157266292
-0.0003193898250747012,3.013392455636231,2.915120157266292
-0.0003193148250747012,3.003526756474225,2.90444808346327
-0.0003192398250747012,3.013392455636231,2.915120157266292
-0.0003191648250747012,3.00352675647422,2.915120157266292
-0.0003190898250747012,3.013392455636231,2.915120157266292
-0.0003190148250747012,3.013392455636231,2.915120157266292
-0.0003189398250747012,3.00352675647422,2.915120157266292
-0.0003188648250747012,3.00352675647422,2.915120157266292
-0.0003187898250747012,3.013392455636231,2.915120157266292
-0.0003187148250747012,3.00352675647422,2.915120157266292
-0.0003186398250747012,3.013392455636227,2.915120157266292
-0.0003185648250747012,3.013392455636231,2.915120157266292
-0.0003184898250747012,3.013392455636231,2.915120157266292
-0.0003184148250747012,3.00352675647422,2.915120157266292
-0.0003183398250747012,3.013392455636227,2.915120157266292
-0.0003182648250747012,3.013392455636227,2.915120157266292
-0.0003181898250747012,3.00352675647422,2.915120157266292
-0.0003181148250747012,3.00352675647422,2.915120157266292
-0.0003180398250747012,3.00352675647422,2.915120157266292
-0.0003179648250747012,3.013392455636227,2.915120157266292
-0.0003178898250747012,3.013392455636231,2.915120157266302
-0.0003178148250747012,3.013392455636231,2.936464304872346
-0.0003177398250747012,3.013392455636231,2.925792231069319
-0.0003176648250747012,3.023258154798243,2.925792231069319
-0.0003175898250747012,3.013392455636236,2.925792231069319
-0.0003175148250747012,3.00352675647422,2.915120157266292
-0.0003174398250747012,3.013392455636231,2.925792231069319
-0.0003173648250747012,3.013392455636231,2.925792231069319
-0.0003172898250747012,3.013392455636231,2.936464304872341
-0.0003172148250747012,3.013392455636231,2.925792231069319
-0.0003171398250747012,3.013392455636231,2.925792231069319
-0.0003170648250747012,3.013392455636231,2.925792231069319
-0.0003169898250747012,3.013392455636231,2.925792231069319
-0.0003169148250747012,3.003526756474225,2.925792231069319
-0.0003168398250747012,3.013392455636236,2.925792231069324
-0.0003167648250747012,3.023258154798243,2.936464304872346
-0.0003166898250747012,3.023258154798243,2.925792231069319
-0.0003166148250747012,3.023258154798243,2.925792231069319
-0.0003165398250747012,3.023258154798234,2.936464304872341
-0.0003164648250747012,3.00352675647422,2.925792231069319
-0.0003163898250747012,3.013392455636231,2.925792231069319
-0.0003163148250747012,3.00352675647422,2.936464304872346
-0.0003162398250747012,3.00352675647422,2.925792231069324
